…
Preparing data for hierarchical cluster

``` r
dfcars <- mtcars %>%
  rownames_to_column() %>% #add a column name instead of a rowname to car names
  as_tibble() %>% #save as tibble
  select(car = rowname, mpg:hp, wt, qsec, gear, carb) %>% #choosing specific columns
  mutate_at(vars(-car), scale) %>% #make all <dlb> type columns have same scale using z-score
  print()
```

    ## # A tibble: 32 × 9
    ##    car       mpg[,1] cyl[,1] disp[,1] hp[,1]   wt[,1] qsec[,1] gear[,1] carb[,1]
    ##    <chr>       <dbl>   <dbl>    <dbl>  <dbl>    <dbl>    <dbl>    <dbl>    <dbl>
    ##  1 Mazda RX4   0.151  -0.105  -0.571  -0.535 -0.610     -0.777    0.424    0.735
    ##  2 Mazda RX…   0.151  -0.105  -0.571  -0.535 -0.350     -0.464    0.424    0.735
    ##  3 Datsun 7…   0.450  -1.22   -0.990  -0.783 -0.917      0.426    0.424   -1.12 
    ##  4 Hornet 4…   0.217  -0.105   0.220  -0.535 -0.00230    0.890   -0.932   -1.12 
    ##  5 Hornet S…  -0.231   1.01    1.04    0.413  0.228     -0.464   -0.932   -0.503
    ##  6 Valiant    -0.330  -0.105  -0.0462 -0.608  0.248      1.33    -0.932   -1.12 
    ##  7 Duster 3…  -0.961   1.01    1.04    1.43   0.361     -1.12    -0.932    0.735
    ##  8 Merc 240D   0.715  -1.22   -0.678  -1.24  -0.0278     1.20     0.424   -0.503
    ##  9 Merc 230    0.450  -1.22   -0.726  -0.754 -0.0687     2.83     0.424   -0.503
    ## 10 Merc 280   -0.148  -0.105  -0.509  -0.345  0.228      0.253    0.424    0.735
    ## # ℹ 22 more rows
…
